

[04-01-2017 1:13:36]:	dac


[04-01-2017 1:14:12]:	0


[04-01-2017 1:14:36]:	0


[04-01-2017 1:16:30]:	0


[04-01-2017 1:18:8]:	0


[04-01-2017 1:20:10]:	1


[04-01-2017 1:20:10]:	dac 28122016 ben trong


[04-01-2017 1:24:45]:	1


[04-01-2017 1:24:45]:	dac 28122016 ben trong


[04-01-2017 1:31:40]:	1


[04-01-2017 1:31:40]:	dac 28122016 ben trong


[04-01-2017 1:31:47]:	1


[04-01-2017 1:31:47]:	dac 28122016 ben trong


[04-01-2017 1:31:57]:	1


[04-01-2017 1:31:57]:	dac 28122016 ben trong


[04-01-2017 1:38:19]:	1


[04-01-2017 1:38:19]:	dac 28122016 ben trong


[04-01-2017 1:38:54]:	1


[04-01-2017 1:38:54]:	dac 28122016 ben trong


[04-01-2017 1:39:57]:	1


[04-01-2017 1:39:57]:	dac 28122016 ben trong


[04-01-2017 1:41:25]:	1


[04-01-2017 1:41:25]:	dac 28122016 ben trong


[04-01-2017 1:41:35]:	1


[04-01-2017 1:41:35]:	dac 28122016 ben trong


[04-01-2017 1:41:38]:	1


[04-01-2017 1:41:38]:	dac 28122016 ben trong


[04-01-2017 1:41:39]:	1


[04-01-2017 1:41:39]:	dac 28122016 ben trong


[04-01-2017 1:41:41]:	1


[04-01-2017 1:41:41]:	dac 28122016 ben trong


[04-01-2017 1:41:42]:	1


[04-01-2017 1:41:42]:	dac 28122016 ben trong


[04-01-2017 1:41:44]:	1


[04-01-2017 1:41:44]:	dac 28122016 ben trong


[04-01-2017 1:41:45]:	1


[04-01-2017 1:41:45]:	dac 28122016 ben trong


[04-01-2017 1:49:3]:	1


[04-01-2017 1:49:3]:	dac 28122016 ben trong


[04-01-2017 1:49:8]:	1


[04-01-2017 1:49:8]:	dac 28122016 ben trong


[04-01-2017 1:49:11]:	1


[04-01-2017 1:49:11]:	dac 28122016 ben trong


[04-01-2017 1:49:20]:	1


[04-01-2017 1:49:20]:	dac 28122016 ben trong


[04-01-2017 1:49:24]:	1


[04-01-2017 1:49:24]:	dac 28122016 ben trong


[04-01-2017 1:49:30]:	1


[04-01-2017 1:49:30]:	dac 28122016 ben trong


[04-01-2017 1:49:58]:	1


[04-01-2017 1:49:58]:	dac 28122016 ben trong


[04-01-2017 2:5:43]:	1


[04-01-2017 2:5:43]:	dac 28122016 ben trong


[06-01-2017 0:40:45]:	1


[06-01-2017 0:40:45]:	1


[06-01-2017 0:40:45]:	dac 28122016 ben trong


[06-01-2017 0:40:45]:	dac 28122016 ben trong


[06-01-2017 0:48:1]:	1


[06-01-2017 0:48:1]:	dac 28122016 ben trong


[06-01-2017 0:56:15]:	1


[06-01-2017 0:56:15]:	dac 28122016 ben trong


[06-01-2017 0:59:10]:	1


[06-01-2017 0:59:10]:	dac 28122016 ben trong


[06-01-2017 1:0:8]:	1


[06-01-2017 1:0:8]:	dac 28122016 ben trong


[06-01-2017 1:0:42]:	1


[06-01-2017 1:0:42]:	dac 28122016 ben trong


[06-01-2017 1:1:42]:	1


[06-01-2017 1:1:42]:	dac 28122016 ben trong


[06-01-2017 1:3:10]:	1


[06-01-2017 1:3:10]:	dac 28122016 ben trong


[06-01-2017 1:9:51]:	1


[06-01-2017 1:9:51]:	dac 28122016 ben trong


[06-01-2017 1:10:43]:	1


[06-01-2017 1:10:43]:	dac 28122016 ben trong


[06-01-2017 1:22:26]:	1


[06-01-2017 1:22:26]:	dac 28122016 ben trong


[06-01-2017 1:34:33]:	1


[06-01-2017 1:34:33]:	dac 28122016 ben trong


[06-01-2017 1:34:39]:	1


[06-01-2017 1:34:39]:	dac 28122016 ben trong


[06-01-2017 1:34:50]:	1


[06-01-2017 1:34:50]:	dac 28122016 ben trong


[06-01-2017 1:35:10]:	1


[06-01-2017 1:35:10]:	dac 28122016 ben trong


[06-01-2017 1:36:5]:	1


[06-01-2017 1:36:5]:	dac 28122016 ben trong


[06-01-2017 1:36:9]:	1


[06-01-2017 1:36:9]:	dac 28122016 ben trong


[06-01-2017 1:36:15]:	1


[06-01-2017 1:36:15]:	dac 28122016 ben trong


[06-01-2017 1:37:18]:	1


[06-01-2017 1:37:18]:	dac 28122016 ben trong


[06-01-2017 1:37:54]:	1


[06-01-2017 1:37:54]:	dac 28122016 ben trong


[06-01-2017 1:41:17]:	1


[06-01-2017 1:41:17]:	dac 28122016 ben trong


[06-01-2017 1:42:36]:	1


[06-01-2017 1:42:36]:	dac 28122016 ben trong


[06-01-2017 1:47:15]:	1


[06-01-2017 1:47:15]:	dac 28122016 ben trong


[11-01-2017 0:42:41]:	1


[11-01-2017 0:42:41]:	dac 28122016 ben trong


[11-01-2017 1:22:23]:	1


[11-01-2017 1:22:23]:	dac 28122016 ben trong


[11-01-2017 1:29:43]:	1


[11-01-2017 1:29:43]:	dac 28122016 ben trong


[11-01-2017 1:31:18]:	1


[11-01-2017 1:31:18]:	dac 28122016 ben trong


[11-01-2017 1:32:9]:	1


[11-01-2017 1:32:9]:	dac 28122016 ben trong


[17-01-2017 1:12:38]:	1


[17-01-2017 1:12:38]:	dac 28122016 ben trong


[17-01-2017 1:13:43]:	1


[17-01-2017 1:13:43]:	dac 28122016 ben trong


[17-01-2017 1:16:8]:	1


[17-01-2017 1:16:8]:	dac 28122016 ben trong


[02-02-2017 22:5:16]:	1


[02-02-2017 22:5:16]:	dac 28122016 ben trong


[02-02-2017 22:5:51]:	1


[02-02-2017 22:5:51]:	dac 28122016 ben trong


[02-02-2017 22:6:5]:	1


[02-02-2017 22:6:5]:	dac 28122016 ben trong


[02-02-2017 22:6:48]:	1


[02-02-2017 22:6:48]:	dac 28122016 ben trong


[02-02-2017 22:6:49]:	1


[02-02-2017 22:6:49]:	dac 28122016 ben trong


[02-02-2017 22:6:49]:	1


[02-02-2017 22:6:49]:	dac 28122016 ben trong


[02-02-2017 22:6:49]:	1


[02-02-2017 22:6:49]:	dac 28122016 ben trong


[02-02-2017 22:6:50]:	1


[02-02-2017 22:6:50]:	dac 28122016 ben trong


[02-02-2017 22:6:50]:	1


[02-02-2017 22:6:50]:	dac 28122016 ben trong


[02-02-2017 22:6:59]:	1


[02-02-2017 22:6:59]:	dac 28122016 ben trong


[02-02-2017 22:6:59]:	1


[02-02-2017 22:6:59]:	dac 28122016 ben trong


[02-02-2017 22:7:0]:	1


[02-02-2017 22:7:0]:	dac 28122016 ben trong


[02-02-2017 22:7:0]:	1


[02-02-2017 22:7:0]:	dac 28122016 ben trong


[02-02-2017 22:7:1]:	1


[02-02-2017 22:7:1]:	dac 28122016 ben trong


[02-02-2017 22:7:1]:	1


[02-02-2017 22:7:1]:	dac 28122016 ben trong


[02-02-2017 22:7:19]:	1


[02-02-2017 22:7:19]:	dac 28122016 ben trong


[02-02-2017 22:7:19]:	1


[02-02-2017 22:7:19]:	dac 28122016 ben trong


[02-02-2017 22:7:20]:	1


[02-02-2017 22:7:20]:	dac 28122016 ben trong


[02-02-2017 22:7:20]:	1


[02-02-2017 22:7:20]:	dac 28122016 ben trong


[02-02-2017 22:7:21]:	1


[02-02-2017 22:7:21]:	dac 28122016 ben trong


[02-02-2017 22:7:21]:	1


[02-02-2017 22:7:21]:	dac 28122016 ben trong


[02-02-2017 22:8:30]:	1


[02-02-2017 22:8:30]:	1


[02-02-2017 22:8:30]:	1


[02-02-2017 22:8:30]:	1


[02-02-2017 22:8:30]:	1


[02-02-2017 22:8:31]:	dac 28122016 ben trong


[02-02-2017 22:8:31]:	dac 28122016 ben trong


[02-02-2017 22:8:31]:	dac 28122016 ben trong


[02-02-2017 22:8:31]:	dac 28122016 ben trong


[02-02-2017 22:8:31]:	dac 28122016 ben trong


[02-02-2017 22:8:31]:	1


[02-02-2017 22:8:31]:	dac 28122016 ben trong


[02-02-2017 22:8:54]:	1


[02-02-2017 22:8:54]:	dac 28122016 ben trong


[02-02-2017 22:9:7]:	1


[02-02-2017 22:9:7]:	dac 28122016 ben trong


[02-02-2017 22:9:29]:	1


[02-02-2017 22:9:29]:	dac 28122016 ben trong


[02-02-2017 22:9:37]:	1


[02-02-2017 22:9:37]:	dac 28122016 ben trong


[02-02-2017 22:9:51]:	1


[02-02-2017 22:9:51]:	dac 28122016 ben trong


[02-02-2017 22:10:50]:	1


[02-02-2017 22:10:50]:	dac 28122016 ben trong


[02-02-2017 22:11:52]:	1


[02-02-2017 22:11:52]:	dac 28122016 ben trong


[02-02-2017 22:12:20]:	1


[02-02-2017 22:12:20]:	dac 28122016 ben trong


[02-02-2017 22:12:42]:	1


[02-02-2017 22:12:42]:	dac 28122016 ben trong


[02-02-2017 22:13:2]:	1


[02-02-2017 22:13:2]:	dac 28122016 ben trong


[02-02-2017 22:17:3]:	1


[02-02-2017 22:17:3]:	dac 28122016 ben trong


[02-02-2017 22:17:47]:	1


[02-02-2017 22:17:47]:	dac 28122016 ben trong


[02-02-2017 22:18:0]:	1


[02-02-2017 22:18:0]:	dac 28122016 ben trong


[02-02-2017 22:19:25]:	1


[02-02-2017 22:19:25]:	dac 28122016 ben trong


[02-02-2017 22:19:55]:	1


[02-02-2017 22:19:55]:	dac 28122016 ben trong


[02-02-2017 22:21:27]:	1


[02-02-2017 22:21:27]:	dac 28122016 ben trong


[02-02-2017 22:21:32]:	1


[02-02-2017 22:21:32]:	dac 28122016 ben trong


[02-02-2017 22:22:17]:	1


[02-02-2017 22:22:17]:	dac 28122016 ben trong


[02-02-2017 22:22:22]:	1


[02-02-2017 22:22:22]:	dac 28122016 ben trong


[02-02-2017 22:22:30]:	1


[02-02-2017 22:22:30]:	dac 28122016 ben trong


[02-02-2017 22:23:22]:	1


[02-02-2017 22:23:22]:	dac 28122016 ben trong


[02-02-2017 22:24:1]:	1


[02-02-2017 22:24:1]:	dac 28122016 ben trong


[02-02-2017 22:24:9]:	1


[02-02-2017 22:24:9]:	dac 28122016 ben trong


[02-02-2017 22:24:15]:	1


[02-02-2017 22:24:15]:	dac 28122016 ben trong


[02-02-2017 22:35:54]:	1


[02-02-2017 22:35:54]:	dac 28122016 ben trong


[15-02-2017 0:44:10]:	1


[15-02-2017 0:44:10]:	dac 28122016 ben trong


[15-02-2017 0:45:14]:	1


[15-02-2017 0:45:14]:	dac 28122016 ben trong


[15-02-2017 0:45:20]:	1


[15-02-2017 0:45:20]:	dac 28122016 ben trong


[15-02-2017 0:45:24]:	1


[15-02-2017 0:45:24]:	dac 28122016 ben trong


[15-02-2017 0:45:31]:	1


[15-02-2017 0:45:31]:	dac 28122016 ben trong


[20-02-2017 23:41:24]:	1


[20-02-2017 23:41:25]:	dac 28122016 ben trong


[20-02-2017 23:41:50]:	1


[20-02-2017 23:41:50]:	dac 28122016 ben trong


[20-02-2017 23:41:56]:	1


[20-02-2017 23:41:56]:	dac 28122016 ben trong


[20-02-2017 23:41:59]:	1


[20-02-2017 23:41:59]:	dac 28122016 ben trong


[20-02-2017 23:42:3]:	1


[20-02-2017 23:42:3]:	dac 28122016 ben trong


[20-02-2017 23:42:7]:	1


[20-02-2017 23:42:7]:	dac 28122016 ben trong


[20-02-2017 23:42:11]:	1


[20-02-2017 23:42:11]:	dac 28122016 ben trong


[20-02-2017 23:42:14]:	1


[20-02-2017 23:42:14]:	dac 28122016 ben trong


[20-02-2017 23:42:20]:	1


[20-02-2017 23:42:20]:	dac 28122016 ben trong


[20-02-2017 23:42:28]:	1


[20-02-2017 23:42:28]:	dac 28122016 ben trong


[20-02-2017 23:42:32]:	1


[20-02-2017 23:42:32]:	dac 28122016 ben trong


[21-02-2017 0:51:45]:	1


[21-02-2017 0:51:45]:	dac 28122016 ben trong


[21-02-2017 0:52:21]:	1


[21-02-2017 0:52:21]:	dac 28122016 ben trong


[21-02-2017 0:52:28]:	1


[21-02-2017 0:52:28]:	dac 28122016 ben trong


[21-02-2017 0:52:31]:	1


[21-02-2017 0:52:31]:	dac 28122016 ben trong


[21-02-2017 0:52:33]:	1


[21-02-2017 0:52:33]:	dac 28122016 ben trong


[21-02-2017 0:52:36]:	1


[21-02-2017 0:52:36]:	dac 28122016 ben trong


[21-02-2017 0:55:24]:	1


[21-02-2017 0:55:24]:	dac 28122016 ben trong


[21-02-2017 0:56:24]:	1


[21-02-2017 0:56:24]:	dac 28122016 ben trong


[21-02-2017 0:57:41]:	1


[21-02-2017 0:57:41]:	dac 28122016 ben trong


[21-02-2017 0:57:45]:	1


[21-02-2017 0:57:45]:	dac 28122016 ben trong


[21-02-2017 0:57:59]:	1


[21-02-2017 0:57:59]:	dac 28122016 ben trong


[21-02-2017 0:58:1]:	1


[21-02-2017 0:58:1]:	dac 28122016 ben trong


[21-02-2017 0:58:40]:	1


[21-02-2017 0:58:40]:	dac 28122016 ben trong


[21-02-2017 0:59:4]:	1


[21-02-2017 0:59:4]:	dac 28122016 ben trong


[21-02-2017 1:1:50]:	1


[21-02-2017 1:1:50]:	dac 28122016 ben trong


[21-02-2017 1:2:15]:	1


[21-02-2017 1:2:15]:	dac 28122016 ben trong


[21-02-2017 1:2:17]:	1


[21-02-2017 1:2:17]:	dac 28122016 ben trong


[21-02-2017 1:3:30]:	1


[21-02-2017 1:3:30]:	dac 28122016 ben trong


[21-02-2017 1:3:32]:	1


[21-02-2017 1:3:32]:	dac 28122016 ben trong


[21-02-2017 1:7:31]:	1


[21-02-2017 1:7:31]:	dac 28122016 ben trong


[21-02-2017 1:7:34]:	1


[21-02-2017 1:7:34]:	dac 28122016 ben trong


[21-02-2017 1:7:45]:	1


[21-02-2017 1:7:45]:	dac 28122016 ben trong


[21-02-2017 1:9:39]:	1


[21-02-2017 1:9:39]:	dac 28122016 ben trong


[21-02-2017 1:10:6]:	1


[21-02-2017 1:10:6]:	dac 28122016 ben trong


[21-02-2017 1:10:25]:	1


[21-02-2017 1:10:25]:	dac 28122016 ben trong


[21-02-2017 1:19:19]:	1


[21-02-2017 1:19:19]:	dac 28122016 ben trong


[21-02-2017 1:25:34]:	1


[21-02-2017 1:25:34]:	dac 28122016 ben trong


[21-02-2017 1:25:42]:	1


[21-02-2017 1:25:42]:	dac 28122016 ben trong


[21-02-2017 1:25:52]:	1


[21-02-2017 1:25:52]:	dac 28122016 ben trong


[21-02-2017 1:25:55]:	1


[21-02-2017 1:25:55]:	dac 28122016 ben trong


[21-02-2017 1:26:13]:	1


[21-02-2017 1:26:13]:	dac 28122016 ben trong


[21-02-2017 1:26:18]:	1


[21-02-2017 1:26:18]:	dac 28122016 ben trong


[21-02-2017 1:26:20]:	1


[21-02-2017 1:26:20]:	dac 28122016 ben trong


[21-02-2017 1:26:23]:	1


[21-02-2017 1:26:23]:	dac 28122016 ben trong


[21-02-2017 1:26:35]:	1


[21-02-2017 1:26:35]:	dac 28122016 ben trong


[21-02-2017 1:26:45]:	1


[21-02-2017 1:26:45]:	dac 28122016 ben trong


[21-02-2017 1:27:51]:	1


[21-02-2017 1:27:51]:	dac 28122016 ben trong


[21-02-2017 1:28:40]:	1


[21-02-2017 1:28:40]:	dac 28122016 ben trong


[21-02-2017 1:28:40]:	1


[21-02-2017 1:28:40]:	dac 28122016 ben trong


[21-02-2017 1:28:41]:	1


[21-02-2017 1:28:41]:	dac 28122016 ben trong


[21-02-2017 1:28:50]:	1


[21-02-2017 1:28:50]:	dac 28122016 ben trong


[21-02-2017 1:28:50]:	1


[21-02-2017 1:28:50]:	dac 28122016 ben trong


[21-02-2017 1:31:1]:	1


[21-02-2017 1:31:1]:	dac 28122016 ben trong


[21-02-2017 1:31:10]:	1


[21-02-2017 1:31:10]:	dac 28122016 ben trong


[21-02-2017 1:31:13]:	1


[21-02-2017 1:31:13]:	dac 28122016 ben trong


[21-02-2017 1:31:15]:	1


[21-02-2017 1:31:15]:	dac 28122016 ben trong


[21-02-2017 1:33:40]:	1


[21-02-2017 1:33:40]:	dac 28122016 ben trong


[21-02-2017 1:33:42]:	1


[21-02-2017 1:33:42]:	dac 28122016 ben trong


[21-02-2017 1:40:20]:	1


[21-02-2017 1:40:20]:	dac 28122016 ben trong


[21-02-2017 1:40:36]:	1


[21-02-2017 1:40:36]:	dac 28122016 ben trong


[21-02-2017 1:41:4]:	1


[21-02-2017 1:41:4]:	dac 28122016 ben trong


[21-02-2017 1:41:7]:	1


[21-02-2017 1:41:7]:	dac 28122016 ben trong


[21-02-2017 1:41:15]:	1


[21-02-2017 1:41:15]:	dac 28122016 ben trong


[21-02-2017 1:41:17]:	1


[21-02-2017 1:41:17]:	dac 28122016 ben trong


[21-02-2017 1:41:19]:	1


[21-02-2017 1:41:19]:	dac 28122016 ben trong


[21-02-2017 1:42:11]:	1


[21-02-2017 1:42:11]:	dac 28122016 ben trong


[21-02-2017 1:42:14]:	1


[21-02-2017 1:42:14]:	dac 28122016 ben trong


[21-02-2017 1:42:15]:	1


[21-02-2017 1:42:15]:	dac 28122016 ben trong


[21-02-2017 1:42:17]:	1


[21-02-2017 1:42:17]:	dac 28122016 ben trong


[21-02-2017 1:43:12]:	1


[21-02-2017 1:43:12]:	dac 28122016 ben trong


[21-02-2017 1:45:7]:	1


[21-02-2017 1:45:7]:	dac 28122016 ben trong


[21-02-2017 1:51:33]:	1


[21-02-2017 1:51:33]:	dac 28122016 ben trong


[21-02-2017 2:20:10]:	1


[21-02-2017 2:20:10]:	1


[21-02-2017 2:20:10]:	dac 28122016 ben trong


[21-02-2017 2:20:10]:	dac 28122016 ben trong


[21-02-2017 2:23:48]:	1


[21-02-2017 2:23:48]:	dac 28122016 ben trong


[22-02-2017 15:15:27]:	1


[22-02-2017 15:15:27]:	dac 28122016 ben trong


[22-02-2017 15:16:13]:	1


[22-02-2017 15:17:38]:	dac 28122016 ben trong


[22-02-2017 15:19:19]:	1


[22-02-2017 15:19:20]:	dac 28122016 ben trong


[22-02-2017 15:19:40]:	1


[22-02-2017 15:19:40]:	dac 28122016 ben trong


[22-02-2017 15:20:23]:	1


[22-02-2017 15:21:24]:	dac 28122016 ben trong
